{
	"name": "Splunk .conf",
	"patterns": [
		{
			"include": "#keywords"
		},
		{
			"include": "#strings"
		},
		{
			"begin": "(([\\s\\t])|^)(?=#)",
			"beginCaptures": {
				"1": {
					"name": "punctuation.whitespace.comment.leading.conf"
				}
			},
			"end": "(?!\\G)",
			"patterns": [
				{
					"begin": "#",
					"beginCaptures": {
						"0": {
							"name": "punctuation.definition.comment.conf"
						}
					},
					"end": "\\n",
					"name": "comment.line.number-sign.conf"
				}
			]
		},
		{
			"captures": {
				"1": {
					"name": "constant.language.conf"
				}
			},
			"match": "\\s+(AS|BY|GROUP|GROUPBY|WHERE|OR|AND)\\s+",
			"name": "entity.name.section.class-group.conf"
		},
		{
			"captures": {
				"1": {
					"name": "keyword.other.definition.conf"
				},
				"2": {
					"name": "punctuation.definition.entity.conf"
				}
			},
			"match": "^(\\w+\\-)(\\w+)\\s+",
			"name": "entity.name.section.class-group.conf"
		},
		{
			"captures": {
				"1": {
					"name": "keyword.other.definition.conf"
				},
				"2": {
					"name": "punctuation.separator.key-value.conf"
				},
				"3": {
					"name": "variable.language.conf"
				}
			},
			"match": "^\\b([a-zA-Z0-9_.-]+)\\b\\s*(=)\\s+(\\d+)?"
		},
		{
			"captures": {
				"1": {
					"name": "variable.language.conf"
				}
			},
			"match": "^(\\[.*)(\\/\\.{2,})(.*\\])",
			"name": "entity.name.section.recursive.conf"
		},
		{
			"captures": {
				"1": {
					"name": "punctuation.definition.conf"
				},
				"2": {
					"name": "punctuation.definition.conf"
				},
				"3": {
					"name": "constant.language.conf"
				},
				"4": {
					"name": "punctuation.definition.conf"
				}
			},
			"match": "^(\\[)(\\w+\\:\\/\\/)?(.*?)(\\])",
			"name": "entity.name.section.group-title.conf"
		},
		{
			"captures": {
				"1": {
					"name": "punctuation.definition.entity.conf"
				},
				"3": {
					"name": "punctuation.definition.entity.conf"
				}
			},
			"match": "^\\w+\\s*=\\s*(.*(?!\\\\)([\\[\\]\\(\\)\\$\\!\\|\\{\\}\\\\]|\\:{2,}).*)",
			"name": "entity.name.section.regex-group.conf"
		},
		{
			"begin": "'",
			"beginCaptures": {
				"0": {
					"name": "punctuation.definition.string.begin.splunk"
				}
			},
			"end": "'",
			"endCaptures": {
				"0": {
					"name": "punctuation.definition.string.end.splunk"
				}
			},
			"name": "string.quoted.single.splunk",
			"patterns": [
				{
					"match": "\\\\.",
					"name": "constant.character.escape.splunk"
				}
			]
		},
		{
			"begin": "\"",
			"beginCaptures": {
				"0": {
					"name": "punctuation.definition.string.begin.conf"
				}
			},
			"end": "\"",
			"endCaptures": {
				"0": {
					"name": "punctuation.definition.string.end.conf"
				}
			},
			"name": "string.quoted.double.conf"
		}
	],
	"repository": {
		"strings": {
			"name": "string.quoted.double.splunk",
			"begin": "\"",
			"end": "\"",
			"patterns": [
				{
					"name": "constant.character.escape.splunk",
					"match": "\\\\."
				}
			]
		}
	},
	"scopeName": "source.conf"
}